%YAML 1.1
%TAG !u! tag:unity3d.com,2011:
--- !u!114 &11400000
MonoBehaviour:
  m_ObjectHideFlags: 0
  m_CorrespondingSourceObject: {fileID: 0}
  m_PrefabInstance: {fileID: 0}
  m_PrefabAsset: {fileID: 0}
  m_GameObject: {fileID: 0}
  m_Enabled: 1
  m_EditorHideFlags: 0
  m_Script: {fileID: 11500000, guid: 68721777ae674fe49953d16885fde06e, type: 3}
  m_Name: AsteroidSmall
  m_EditorClassIdentifier: 
  _minSpeed: 2
  _maxSpeed: 2.5
  _health: 1
  _damage: 1
  _score: 30
  _destroyClip:
    _volume: 1
    _clip: {fileID: 8300000, guid: 884cc80baf2f3a14590162d4ea1656b1, type: 3}
  _scale: 0.25
  _spawnAfterDestructionAmount: 0
