%YAML 1.1
%TAG !u! tag:unity3d.com,2011:
--- !u!114 &11400000
MonoBehaviour:
  m_ObjectHideFlags: 0
  m_CorrespondingSourceObject: {fileID: 0}
  m_PrefabInstance: {fileID: 0}
  m_PrefabAsset: {fileID: 0}
  m_GameObject: {fileID: 0}
  m_Enabled: 1
  m_EditorHideFlags: 0
  m_Script: {fileID: 11500000, guid: ae8610ff64404b0087abf62d7e0a1e7a, type: 3}
  m_Name: SaucerBigLaserConfig
  m_EditorClassIdentifier: 
  _speed: 5
  _lifetime: 1
  _damage: 1
  _accuracy: 0
